title,key,value,
Сервер RH2288/8-3 V3 460R 1X2620V4/16GB/0/4GE HUAWEI HU,,,
,Тип корпуса,2U rack,
,Чипсет,Intel C610,
,Socket,LGA2011-3,
,Тип процессора,E5-2620V4,
,Installed CPUs,1,
,Maximum number of CPUs,2,
,Память,16 Гб,
,Memory configuration,1 x 16GB,
,Тип оперативной памяти,DDR4,
,Версия,Redundant-Power-Capable,
,PSU product code,2130957,
,Мощность,460 Вт,
,Installed PSUs,1,
,Maximum number of PSUs,2,
,Количество в упаковке,1,
,Объем,0.78 м3,
,Вес без упаковки,52 кг,
,Вес в упаковке,59 кг,
,Parameter Level,3,
,"2.5"" SAS/SATA Hot-swap",8,
,EATX,да,
,Ширина упаковки,98 см,
,Глубина упаковки,120 см,
,Высота упаковки,67 см,
,Вес упаковки,59 кг,
Сервер 2XE5-2640V4 8X16GB SYS-2028U-TRT+ SUPERMICRO SM,,,
,System product code,SYS-2028U-TRT+,
,Тип корпуса,2U rack,
,Чипсет,Intel C612 Express,
,Socket,LGA2011-3,
,Тип процессора,E5-2640V4,
,Частота работы шины,2400 МГц,
,Installed CPUs,2,
,Maximum number of CPUs,2,
,SSD configuration,"16 x Intel DC S3510 240GB, SATA 6Gb/s, MLC 2.5"" 7.0mm, 16nm",
,Память,128 Гб,
,Memory configuration,8 x 16GB DDR4-2400 2R*4 ECC REG DIMM,
,Тип оперативной памяти,DDR4,
,Memory features,RDIMM,
,Количество слотов памяти,24,
,Мощность,1000 Вт,
,Аксессуары в комплекте,"2 xCBL-SAST-0593 Internal Mini-SAS HD to Mini-SAS HD 60cm,30AWG,12Gb/s,
1 x AOC-S3108L-H8IR AOC-S3108L-H8iR Retail Pack (NOT FOR SELL ALONE),
1 x MC0037 ASSEMBLY FEE",
,Количество в упаковке,1,
,Объем,0.23 м3,
,Вес без упаковки,16.40 кг,
,Вес в упаковке,34 кг,
,Parameter Level,3,
,"2.5"" SATA Hot-swap",24,
,Наличие USB 3.0,да,
,Наличие SATA 3.0,да,
,PCI-Express 3.0  8x,7,
,PCI-Express 3.0 16x,1,
,Разъем 15pin D-sub,1,
,Наличие USB 3.0,3,
,RJ45,3,
,COM via Header,1,
,Ширина упаковки,67 см,
,Глубина упаковки,119 см,
,Высота упаковки,29 см,
,Вес упаковки,34 кг,
Сервер 2XE5-2630V4 8X8GB LWT1208GXXXXX39 INTEL IN,,,
,System product code,R1208WT2GSR,
,Тип корпуса,1U rack,
,Socket,LGA2011-3,
,Тип процессора,E5-2630V4,
,Частота работы шины,2200 МГц,
,Installed CPUs,2,
,Maximum number of CPUs,2,
,Память,64 Гб,
,Memory configuration,"8x 8GB (1x8GB) RDIMM, DDR4, Dual Rank, 2133Mhz M393A1G43DB0-CPB",
,Тип оперативной памяти,DDR4,
,Memory features,RDIMM,
,Количество слотов памяти,24,
,RAID,1x Intel Integrated RAID Module RMS3CC080,
,PSU product code,FXX750PCRPS,
,Мощность,750 Вт,
,Installed PSUs,2,
,Аксессуары в комплекте,Remote Management Module AXXRMM4LITE,<BR>Intel RAID Maintenance Free Backup AXXRMFBU5
,Количество в упаковке,1,
,Объем,0.14 м3,
,Вес без упаковки,23 кг,
,Вес в упаковке,26 кг,
,Parameter Level,3,
,PCI-Express 3.0 4x,1,
,PCI-Express 3.0  8x,1,
,PCI-Express 3.0 16x,2,
,Ширина упаковки,58 см,
,Глубина упаковки,98 см,
,Высота упаковки,26 см,
,Вес упаковки,26 кг,
Сервер 2XE5-2620V4 LWT2224YXXXX121 INTEL IN,,,
,System product code,R2224WTTYSR,
,Тип корпуса,2U rack,
,Socket,LGA2011-3,
,Тип процессора,E5-2620V4,
,Частота работы шины,2100 МГц,
,Installed CPUs,2,
,Maximum number of CPUs,2,
,Тип оперативной памяти,DDR4,
,Количество слотов памяти,24,
,RAID,RAID Module RMS3CC080,
,PSU product code,AXX1100PCRPS,
,Мощность,1100 Вт,
,Installed PSUs,2,
,Аксессуары в комплекте,"Remote Management Module AXXRMM4LITE; Intel RAID Expander RES3TV360, RAID Module RMS3CC080, RAID Maintenance Free Backup AXXRMFBU5",
,Количество в упаковке,1,
,Объем,0.16 м3,
,Вес без упаковки,17 кг,
,Вес в упаковке,20 кг,
,Parameter Level,3,
,PCI-Express 3.0 4x,1,
,PCI-Express 3.0  8x,6,
,COM,2,
,RJ45,2,
,Ширина упаковки,60 см,
,Глубина упаковки,100 см,
,Высота упаковки,27 см,
,Вес упаковки,20 кг,
Сервер 2XE5-2630V4 4X16GB LWT1208GXXXX121 INTEL IN,,,
,System product code,R1208WTTGSR,
,Тип корпуса,1U rack,
,Чипсет,Intel C612 Express,
,Socket,LGA2011-3,
,Тип процессора,E5-2630V4,
,Частота работы шины,2200 МГц,
,Installed CPUs,2,
,Память,64 Гб,
,Memory configuration,"4x 16GB (1x16GB) RDIMM, DDR4,",
,Тип оперативной памяти,DDR4,
,Memory features,RDIMM,
,Количество слотов памяти,24,
,RAID,Intel Integrated RAID Module R,
,PSU product code,FXX750PCRPS,
,Мощность,750 Вт,
,Installed PSUs,2,
,Аксессуары в комплекте,Remote Management Module AXXRM,
,Количество в упаковке,1,
,Объем,0.14 м3,
,Вес без упаковки,20 кг,
,Вес в упаковке,23 кг,
,Parameter Level,3,
,PCI-Express 3.0 4x,1,
,PCI-Express 3.0  8x,1,
,PCI-Express 3.0 16x,2,
,COM,2,
,RJ45,2,
,Ширина упаковки,58 см,
,Глубина упаковки,98 см,
,Высота упаковки,26 см,
,Вес упаковки,22.96 кг,
Сервер E5-2620V4 12X32GB LWT1304GXXXX522 INTEL IN,,,
,System product code,R1304WTTGSR,
,Тип корпуса,1U rack,
,Чипсет,Intel C612 Express,
,Тип процессора,E5-2620V4,
,Частота работы шины,2100 МГц,
,Installed CPUs,1,
,Maximum number of CPUs,2,
,Память,384 Гб,
,Memory configuration,"12x 32GB (1X32GB) RDIMM, DDR4, 2 Rank, 2400Mhz",
,Тип оперативной памяти,DDR4,
,Memory features,RDIMM,
,Количество слотов памяти,24,
,RAID,1x Intel Integrated RAID Module RMS3CC040,
,NIC,1x Intel Ethernet Converged Network Adapter X710-DA2,
,PSU product code,FXX750PCRPS,
,Мощность,750 Вт,
,Installed PSUs,2,
,Аксессуары в комплекте,Remote Management Module AXXRMM4LITE2,ntel RAID Maintenance Free Backup AXXRMFBU5
,Количество в упаковке,1,
,Объем,0.16 м3,
,Вес без упаковки,20 кг,
,Вес в упаковке,23 кг,
,Parameter Level,3,
,PCI-Express 3.0 4x,1,
,PCI-Express 3.0  8x,1,
,PCI-Express 3.0 16x,2,
,COM,2,
,RJ45,2,
,Ширина упаковки,60 см,
,Глубина упаковки,100 см,
,Высота упаковки,27 см,
,Вес упаковки,23 кг,
Сервер 2XE5-2620V4 LWT2224YXXXX121 INTEL IN,,,
,System product code,R2224WTTYSR,
,Тип корпуса,2U rack,
,Socket,LGA2011-3,
,Тип процессора,E5-2620V4,
,Частота работы шины,2100 МГц,
,Installed CPUs,2,
,Maximum number of CPUs,2,
,Тип оперативной памяти,DDR4,
,Количество слотов памяти,24,
,RAID,RAID Module RMS3CC080,
,PSU product code,AXX1100PCRPS,
,Мощность,1100 Вт,
,Installed PSUs,2,
,Аксессуары в комплекте,"Remote Management Module AXXRMM4LITE; Intel RAID Expander RES3TV360, RAID Module RMS3CC080, RAID Maintenance Free Backup AXXRMFBU5",
,Количество в упаковке,1,
,Объем,0.16 м3,
,Вес без упаковки,17 кг,
,Вес в упаковке,20 кг,
,Parameter Level,3,
,PCI-Express 3.0 4x,1,
,PCI-Express 3.0  8x,6,
,COM,2,
,RJ45,2,
,Ширина упаковки,60 см,
,Глубина упаковки,100 см,
,Высота упаковки,27 см,
,Вес упаковки,20 кг,
Сервер 2XE5-2620V4 4X16GB LWT2208YXXXXX34 INTEL IN,,,
,System product code,R2208WT2YSR,
,Тип корпуса,2U rack,
,Чипсет,Intel C612 Express,
,Socket,LGA2011-3,
,Тип процессора,E5-2620V4,
,Частота работы шины,2100 МГц,
,Installed CPUs,2,
,Maximum number of CPUs,2,
,Память,64 Гб,
,Memory configuration,"4x 16GB (1x16GB) RDIMM, DDR4, Dual Rank, 2133Mhz",
,Тип оперативной памяти,DDR4,
,Memory features,RDIMM,
,Количество слотов памяти,24,
,RAID,1x Intel Integrated RAID Module RMS3CC080,
,PSU product code,AXX1100PCRPS,
,Мощность,1100 Вт,
,Installed PSUs,2,
,Аксессуары в комплекте,Remote Management Module AXXRMM4LITE, <br>Intel RAID Maintenance Free Backup AXXRMFBU5
,Количество в упаковке,1,
,Объем,0.14 м3,
,Вес без упаковки,20 кг,
,Вес в упаковке,25 кг,
,Parameter Level,3,
,PCI-Express 2.0 4x,1,
,PCI-Express 3.0 4x,1,
,PCI-Express 3.0  8x,7,
,COM,2,
,RJ45,2,
,Ширина упаковки,56 см,
,Глубина упаковки,98 см,
,Высота упаковки,26 см,
,Вес упаковки,25 кг,
Сервер 2XE5-2620V4 LWT2312YXXXX125 INTEL IN,,,
,System product code,R2312WTTYSR,
,Тип корпуса,2U rack,
,Чипсет,Intel C612 Express,
,Socket,LGA2011-3,
,Тип процессора,E5-2620V4,
,Частота работы шины,2100 МГц,
,Installed CPUs,2,
,Maximum number of CPUs,2,
,Тип оперативной памяти,DDR4,
,Количество слотов памяти,24,
,RAID,1x Intel Integrated RAID Module RMS3CC040,
,Мощность,1100 Вт,
,Installed PSUs,1,
,Аксессуары в комплекте,"Remote Management Module AXXRMM4LITE;
Intel Integrated RAID Module RMS3CC040;
Intel RAID Maintenance Free Backup AXXRMFBU5;
Intel RAID Expander RES3FV288",
,Количество в упаковке,1,
,Объем,0.15 м3,
,Вес без упаковки,22 кг,
,Вес в упаковке,25 кг,
,Parameter Level,3,
,PCI-Express 3.0 4x,1,
,PCI-Express 3.0  8x,6,
,Ширина упаковки,60 см,
,Глубина упаковки,98 см,
,Высота упаковки,27 см,
,Вес упаковки,25 кг,
Сервер 2XE5-2620V4 4X8GB LWT2208YXXXX128 INTEL IN,,,
,System product code,R2208WT2YSR,
,Тип корпуса,2U rack,
,Чипсет,Intel C612 Express,
,Socket,LGA2011-3,
,Тип процессора,E5-2620V4,
,Installed CPUs,2,
,Maximum number of CPUs,2,
,Память,32 Гб,
,Memory configuration,"4 x 8GB (1x8GB) RDIMM, DDR4, Dual Rank, 2133Mhz",
,Тип оперативной памяти,DDR4,
,Количество слотов памяти,24,
,RAID,1x Intel Integrated RAID Module RMS3CC080,
,PSU product code,AXX1100PCRPS,
,Мощность,1100 Вт,
,Installed PSUs,2,
,Аксессуары в комплекте,"Remote Management Module AXXRMM4LITE;
Intel RAID Maintenance Free Backup AXXRMFBU5",
,Количество в упаковке,1,
,Объем,0.14 м3,
,Вес без упаковки,20 кг,
,Вес в упаковке,30 кг,
,Parameter Level,3,
,PCI-Express 2.0 4x,1,
,PCI-Express 3.0 4x,1,
,PCI-Express 3.0  8x,7,
,Ширина упаковки,59 см,
,Глубина упаковки,100 см,
,Высота упаковки,25 см,
,Вес упаковки,30 кг,
Сервер 2XE5-2620V4 LWT2308YXXXXX37 INTEL IN,,,
,System product code,R2308WTTYSR,
,Тип корпуса,2U rack,
,Чипсет,Intel C612 Express,
,Socket,LGA2011-3,
,Тип процессора,E5-2620V4,
,Частота работы шины,2100 МГц,
,Installed CPUs,2,
,Maximum number of CPUs,2,
,Тип оперативной памяти,DDR4,
,Количество слотов памяти,24,
,RAID,1x Intel Integrated RAID Module RMS3CC080,
,PSU product code,AXX1100PCRPS,
,Мощность,1100 Вт,
,Installed PSUs,2,
,Аксессуары в комплекте,Remote Management Module AXXRMM4LITE,<br>Intel RAID Maintenance Free Backup AXXRMFBU5
,Количество в упаковке,1,
,Объем,0.15 м3,
,Вес без упаковки,20 кг,
,Вес в упаковке,25 кг,
,Parameter Level,3,
,PCI-Express 2.0 4x,1,
,PCI-Express 3.0 4x,1,
,PCI-Express 3.0  8x,7,
,COM,2,
,RJ45,2,
,Ширина упаковки,60 см,
,Глубина упаковки,100 см,
,Высота упаковки,25 см,
,Вес упаковки,25 кг,
Сервер 2XE5-2620V4 LWT2308YXXXXX37 INTEL IN,,,
,System product code,R2308WTTYSR,
,Тип корпуса,2U rack,
,Чипсет,Intel C612 Express,
,Socket,LGA2011-3,
,Тип процессора,E5-2620V4,
,Частота работы шины,2100 МГц,
,Installed CPUs,2,
,Maximum number of CPUs,2,
,Тип оперативной памяти,DDR4,
,Количество слотов памяти,24,
,RAID,1x Intel Integrated RAID Module RMS3CC080,
,PSU product code,AXX1100PCRPS,
,Мощность,1100 Вт,
,Installed PSUs,2,
,Аксессуары в комплекте,Remote Management Module AXXRMM4LITE,<br>Intel RAID Maintenance Free Backup AXXRMFBU5
,Количество в упаковке,1,
,Объем,0.15 м3,
,Вес без упаковки,20 кг,
,Вес в упаковке,23.80 кг,
,Parameter Level,3,
,PCI-Express 2.0 4x,1,
,PCI-Express 3.0 4x,1,
,PCI-Express 3.0  8x,7,
,COM,2,
,RJ45,2,
,Ширина упаковки,58.50 см,
,Глубина упаковки,99 см,
,Высота упаковки,26 см,
,Вес упаковки,23.80 кг,
Сервер 2XE5-2609V4 LWT2308YXXXX228 INTEL IN,,,
,System product code,R2308WTTYSR,
,Тип корпуса,2U rack,
,Чипсет,Intel C612 Express,
,Socket,LGA2011-3,
,Тип процессора,E5-2609V4,
,Частота работы шины,1700 МГц,
,Installed CPUs,2,
,Maximum number of CPUs,2,
,Память,32 Гб,
,Memory configuration,"4x 8GB(X8GB) RDIMM, DDR4, Dual Rank, 2133Mhz",
,Тип оперативной памяти,DDR4,
,Memory features,RDIMM,
,Количество слотов памяти,24,
,RAID,1x Intel Integrated RAID Module RMS3CC080,
,PSU product code,AXX1100PCRPS,
,Мощность,1100 Вт,
,Installed PSUs,2,
,Аксессуары в комплекте,Remote Management Module AXXRMM4LITE, Intel RAID Maintenance Free Backup AXXRMFBU5
,Количество в упаковке,1,
,Объем,0.09 м3,
,Вес без упаковки,20 кг,
,Вес в упаковке,25 кг,
,Parameter Level,3,
,PCI-Express 2.0 4x,1,
,PCI-Express 3.0 4x,1,
,PCI-Express 3.0  8x,7,
,COM,2,
,RJ45,2,
,Ширина упаковки,60 см,
,Глубина упаковки,90 см,
,Высота упаковки,17 см,
,Вес упаковки,25 кг,
Сервер E5-2630V4 LWT2308YXXXXX31 INTEL IN,,,
,System product code,R2308WTTYSR,
,Тип корпуса,2U rack,
,Socket,LGA2011-3,
,Тип процессора,E5-2630V4,
,Частота работы шины,2200 МГц,
,Installed CPUs,2,
,Maximum number of CPUs,2,
,Тип оперативной памяти,DDR4,
,Количество слотов памяти,24,
,PSU product code,AXX1100PCRPS,
,Мощность,1100 Вт,
,Installed PSUs,2,
,Аксессуары в комплекте,Remote Management Module AXXRMM4LITE,
,Количество в упаковке,1,
,Объем,0.15 м3,
,Вес без упаковки,23 кг,
,Вес в упаковке,27 кг,
,Parameter Level,3,
,PCI-Express 2.0 4x,1,
,PCI-Express 3.0 4x,1,
,PCI-Express 3.0  8x,7,
,COM,2,
,RJ45,2,
,Ширина упаковки,56 см,
,Глубина упаковки,100 см,
,Высота упаковки,27 см,
,Вес упаковки,27 кг,
Сервер 2XE5-2687WV4 16X16GB SYS-1028U-TR4+ SUPERMICRO SM,,,
,System product code,SYS-1028U-TR4+,
,Тип корпуса,1U rack,
,Чипсет,Intel C612 Express,
,Socket,LGA2011-3,
,Тип процессора,E5-2687WV4,
,Частота работы шины,3000 МГц,
,Installed CPUs,2,
,Maximum number of CPUs,2,
,Обьем накопителя SSD,800Гб,
,SSD configuration,"2 x Intel S3610 400GB, SATA 6Gb/s, HET MLC 2.5"" 7.0mm 20nm",
,HDD configuration,"4 x SEAGATE 2.5"" 1200GB SAS3 10kRPM CACHE 32GB 512E (TURBOBOOST)",
,Память,256 Гб,
,Memory configuration,16 x 16GB DDR4-2400 2R*4 ECC REG DIMM,
,Тип оперативной памяти,DDR4,
,Memory features,RDIMM/LRDIMM,
,Количество слотов памяти,16,
,Мощность,750 Вт,
,Аксессуары в комплекте,"1 x AOC-S3108L-H8IR AOC-S3108L-H8iR Retail Pack (NOT FOR SELLALONE),
2 x CBL-SAST-0593 Internal Mini-SAS HD to Mini-SAS HD 60cm,30AWG,12Gb/s, 
1 x BTR-TFM8G-LSICVM02 03-25444-06 LSI Supercap w/ 8GB CV + 24''cable (whole kit)
1 x BKT-BBU-BRACKET-05 LSI BBU-BRACKET-05 Remote Mounting Board,
4 x FAN-0101L4 40X56 MM 14.4K RPM 4-PIN PWM FAN FOR SC809 , 
2 x SNK-P0057PSU 1U Passive CPU HS for X10 1U 24-DIMM Ultra and Super Blade, 
1 x MC0037 ASSEMBLY FEE",
,Количество в упаковке,1,
,Объем,0.11 м3,
,Вес без упаковки,18 кг,
,Вес в упаковке,20 кг,
,Parameter Level,3,
,"2.5"" SAS Hot-swap",10,
,Наличие SAS,да,
,Наличие USB 3.0,да,
,Наличие SATA 3.0,да,
,PCI-Express 3.0  8x,2,
,PCI-Express 3.0 16x,2,
,Разъем 15pin D-sub,1,
,Наличие USB 3.0,3,
,COM via Header,1,
,Ширина упаковки,60 см,
,Глубина упаковки,92 см,
,Высота упаковки,21 см,
,Вес упаковки,20 кг,
Сервер E5-2630V4 LWT1208GXXXXX31 INTEL IN,,,
,System product code,R1208WTTGSR,
,Тип корпуса,1U rack,
,Socket,LGA2011-3,
,Тип процессора,E5-2630V4,
,Частота работы шины,2200 МГц,
,Installed CPUs,2,
,Maximum number of CPUs,2,
,Тип оперативной памяти,DDR4,
,Количество слотов памяти,24,
,PSU product code,FXX750PCRPS,
,Мощность,750 Вт,
,Installed PSUs,2,
,Аксессуары в комплекте,Remote Management Module AXXRMM4LITE,
,Количество в упаковке,1,
,Объем,0.14 м3,
,Вес без упаковки,23 кг,
,Вес в упаковке,27 кг,
,Parameter Level,3,
,PCI-Express 3.0 4x,1,
,PCI-Express 3.0  8x,1,
,PCI-Express 3.0 16x,2,
,COM,2,
,RJ45,2,
,Ширина упаковки,56 см,
,Глубина упаковки,99 см,
,Высота упаковки,27 см,
,Вес упаковки,27 кг,
Сервер 2XE5-2630V4 8X16GB LWT2208YXXXXX35 INTEL IN,,,
,System product code,R2208WTTYSR,
,Тип корпуса,2U rack,
,Чипсет,Intel C612 Express,
,Socket,LGA2011-3,
,Тип процессора,E5-2630V4,
,Частота работы шины,2200 МГц,
,Installed CPUs,2,
,Maximum number of CPUs,2,
,Память,128 Гб,
,Memory configuration,"8x 16GB (1x16GB) RDIMM, DDR4, Dual Rank, 2133Mhz M393A2G40DB0-CPB",
,Тип оперативной памяти,DDR4,
,Memory features,RDIMM,
,Количество слотов памяти,24,
,RAID,1x Intel Integrated RAID Module RMS3CC080,
,PSU product code,AXX1100PCRPS,
,Мощность,1100 Вт,
,Installed PSUs,2,
,Аксессуары в комплекте,Remote Management Module AXXRMM4LITE,<br>Intel RAID Maintenance Free Backup AXXRMFBU5
,Количество в упаковке,1,
,Объем,0.14 м3,
,Вес без упаковки,20 кг,
,Вес в упаковке,23 кг,
,Parameter Level,3,
,PCI-Express 2.0 4x,1,
,PCI-Express 3.0 4x,1,
,PCI-Express 3.0  8x,7,
,COM,2,
,RJ45,2,
,Ширина упаковки,56 см,
,Глубина упаковки,98 см,
,Высота упаковки,26 см,
,Вес упаковки,23 кг,
Сервер 2XE5-2620V4 LWT1304GXXXXX38 INTEL IN,,,
,System product code,R1304WTTGSR,
,Тип корпуса,1U rack,
,Чипсет,Intel C612 Express,
,Тип процессора,E5-2620V4,
,Частота работы шины,2100 МГц,
,Installed CPUs,2,
,Maximum number of CPUs,2,
,Тип оперативной памяти,DDR4,
,Количество слотов памяти,24,
,RAID,1x Intel Integrated RAID Module RMS3CC040,
,PSU product code,FXX750PCRPS,
,Мощность,750 Вт,
,Installed PSUs,2,
,Аксессуары в комплекте,Remote Management Module AXXRMM4LITE,<br>Intel RAID Maintenance Free Backup AXXRMFBU5
,Количество в упаковке,1,
,Объем,0.14 м3,
,Вес без упаковки,20 кг,
,Вес в упаковке,29 кг,
,Parameter Level,3,
,PCI-Express 3.0 4x,1,
,PCI-Express 3.0  8x,1,
,PCI-Express 3.0 16x,2,
,COM,2,
,RJ45,2,
,Ширина упаковки,58 см,
,Глубина упаковки,97 см,
,Высота упаковки,26 см,
,Вес упаковки,29 кг,
Сервер 2XE5-2620V4 LWT1304GXXXXX38 INTEL IN,,,
,System product code,R1304WTTGSR,
,Тип корпуса,1U rack,
,Чипсет,Intel C612 Express,
,Тип процессора,E5-2620V4,
,Частота работы шины,2100 МГц,
,Installed CPUs,2,
,Maximum number of CPUs,2,
,Тип оперативной памяти,DDR4,
,Количество слотов памяти,24,
,RAID,1x Intel Integrated RAID Module RMS3CC040,
,PSU product code,FXX750PCRPS,
,Мощность,750 Вт,
,Installed PSUs,2,
,Аксессуары в комплекте,Remote Management Module AXXRMM4LITE,<br>Intel RAID Maintenance Free Backup AXXRMFBU5
,Количество в упаковке,1,
,Объем,0.14 м3,
,Вес без упаковки,20 кг,
,Вес в упаковке,29 кг,
,Parameter Level,3,
,PCI-Express 3.0 4x,1,
,PCI-Express 3.0  8x,1,
,PCI-Express 3.0 16x,2,
,COM,2,
,RJ45,2,
,Ширина упаковки,58 см,
,Глубина упаковки,97 см,
,Высота упаковки,26 см,
,Вес упаковки,29 кг,
Сервер 2XE5-2620V4 4X8GB LWT2308YXXXXX36 INTEL IN,,,
,System product code,R2308WTTYSR,
,Тип корпуса,2U rack,
,Чипсет,Intel C612 Express,
,Socket,LGA2011-3,
,Тип процессора,E5-2620V4,
,Частота работы шины,2100 МГц,
,Installed CPUs,2,
,Maximum number of CPUs,2,
,Память,32 Гб,
,Memory configuration,"4x 8GB (1x8GB) RDIMM, DDR4, Dual Rank, 2133Mhz M393A1G43DB0-CPB",
,Тип оперативной памяти,DDR4,
,Memory features,RDIMM,
,Количество слотов памяти,24,
,Мощность,1100 Вт,
,Installed PSUs,1,
,Количество в упаковке,1,
,Объем,0.14 м3,
,Вес без упаковки,20 кг,
,Вес в упаковке,30 кг,
,Parameter Level,3,
,PCI-Express 2.0 4x,1,
,PCI-Express 3.0 4x,1,
,PCI-Express 3.0  8x,7,
,COM,2,
,RJ45,2,
,Ширина упаковки,57 см,
,Глубина упаковки,96 см,
,Высота упаковки,26 см,
,Вес упаковки,30 кг,
Сервер E5-2630V4 LWT1304GXXXXX28 INTEL IN,,,
,System product code,R1304WTTGS,
,Тип корпуса,1U rack,
,Socket,LGA2011-3,
,Тип процессора,E5-2630V4,
,Частота работы шины,2200 МГц,
,Installed CPUs,2,
,Maximum number of CPUs,2,
,Тип оперативной памяти,DDR4,
,Количество слотов памяти,24,
,Мощность,750 Вт,
,Installed PSUs,1,
,Аксессуары в комплекте,Remote Management AXXRMM4LITE,
,Количество в упаковке,1,
,Объем,0.14 м3,
,Вес без упаковки,18 кг,
,Вес в упаковке,24.50 кг,
,Parameter Level,3,
,PCI-Express 3.0 4x,1,
,PCI-Express 3.0  8x,1,
,PCI-Express 3.0 16x,2,
,COM,2,
,RJ45,2,
,Ширина упаковки,56 см,
,Глубина упаковки,100 см,
,Высота упаковки,26 см,
,Вес упаковки,24.50 кг,
Сервер 2XE5-2620V4 4X8GB LWT1304GXXXXX32 INTEL IN,,,
,System product code,R1304WT2GSR,
,Тип корпуса,1U rack,
,Socket,LGA2011-3,
,Тип процессора,E5-2620V4,
,Частота работы шины,2100 МГц,
,Installed CPUs,2,
,Maximum number of CPUs,2,
,Память,32 Гб,
,Memory configuration,"4 x 8GB (1x8GB) RDIMM, DDR4, Dual Rank, 2133Mhz M393A1G43DB0-CPB",
,Тип оперативной памяти,DDR4,
,Memory features,RDIMM,
,Количество слотов памяти,24,
,PSU product code,FXX750PCRPS,
,Мощность,750 Вт,
,Installed PSUs,2,
,Аксессуары в комплекте,Remote Management Module AXXRMM4LITE,
,Количество в упаковке,1,
,Объем,0.15 м3,
,Вес без упаковки,20 кг,
,Вес в упаковке,25 кг,
,Parameter Level,3,
,PCI-Express 3.0 4x,1,
,PCI-Express 3.0  8x,1,
,PCI-Express 3.0 16x,2,
,COM,2,
,RJ45,2,
,Ширина упаковки,60 см,
,Глубина упаковки,100 см,
,Высота упаковки,25 см,
,Вес упаковки,25 кг,
Сервер 2XE5-2620V4 LWT2312YXXXX125 INTEL IN,,,
,System product code,R2312WTTYSR,
,Тип корпуса,2U rack,
,Чипсет,Intel C612 Express,
,Socket,LGA2011-3,
,Тип процессора,E5-2620V4,
,Частота работы шины,2100 МГц,
,Installed CPUs,2,
,Maximum number of CPUs,2,
,Тип оперативной памяти,DDR4,
,Количество слотов памяти,24,
,RAID,1x Intel Integrated RAID Module RMS3CC040,
,Мощность,1100 Вт,
,Installed PSUs,1,
,Аксессуары в комплекте,"Remote Management Module AXXRMM4LITE;
Intel Integrated RAID Module RMS3CC040;
Intel RAID Maintenance Free Backup AXXRMFBU5;
Intel RAID Expander RES3FV288",
,Количество в упаковке,1,
,Объем,0.15 м3,
,Вес без упаковки,22 кг,
,Вес в упаковке,25 кг,
,Parameter Level,3,
,PCI-Express 3.0 4x,1,
,PCI-Express 3.0  8x,6,
,Ширина упаковки,60 см,
,Глубина упаковки,98 см,
,Высота упаковки,27 см,
,Вес упаковки,25 кг,
Сервер RH1288/8-2 V3 460WR 2X2620V4/32GB/0/4GE HUAWEI HU,,,
,Полное описание,"Huawei Tecal RH1288 v4 8HD (2*E5-2620 V4 CPU,2*16GB Mem,4*GE,2*460W PSU,No DVD,Static Rail Kit) 02311PHL",
,Тип процессора,E5-2620V4,
,Installed CPUs,2,
,Память,32 Гб,
,Memory configuration,2 x 16GB,
,Мощность,460 Вт,
,Installed PSUs,2,
,Количество в упаковке,1,
,Объем,0.14 м3,
,Вес без упаковки,10 кг,
,Вес в упаковке,11 кг,
,Parameter Level,3,
,Ширина упаковки,64 см,
,Глубина упаковки,110 см,
,Высота упаковки,20 см,
,Вес упаковки,11 кг,
Сервер RH1288/8-2 V3 460WR 1X2609V4/16GB/R0/4GE HUAWEI HU,,,
,Полное описание,"Huawei Tecal RH1288 v4 8HD (1*E5-2609 V4 CPU,1*16GB Mem,SR120 Without power failure protection ,4*GE,2*460W PSU,No DVD,Static Rail Kit) 02311PHJ",
,Тип корпуса,1U rack,
,Тип процессора,E5-2609V4,
,Installed CPUs,1,
,Память,16 Гб,
,Memory configuration,1 x 16GB,
,Тип оперативной памяти,DDR4,
,Мощность,460 Вт,
,Количество в упаковке,1,
,Объем,0.14 м3,
,Вес без упаковки,10 кг,
,Вес в упаковке,11.90 кг,
,Parameter Level,3,
,Ширина упаковки,64 см,
,Глубина упаковки,110 см,
,Высота упаковки,21 см,
,Вес упаковки,11.90 кг,
Сервер E3-1230V5 16GB LSVRP4304ES6XX1 951054 INTEL IN,,,
,Чипсет,Intel C236,
,Socket,LGA1151,
,Тип процессора,E3-1230V5,
,Частота работы шины,3400 МГц,
,Installed CPUs,1,
,Maximum number of CPUs,1,
,Обьем накопителя SSD,120Гб,
,SSD configuration,"Intel® SSD DC S3510 Series (120GB, 2.5in SATA 6Gb/s, 16nm, MLC)",
,Память,16 Гб,
,Memory configuration,"16GB, 2133MHZ, DDR4, UDIMM",
,Тип оперативной памяти,DDR4,
,Memory features,UDIMM,
,Количество слотов памяти,4,
,Мощность,365 Вт,
,Количество в упаковке,1,
,Объем,0.11 м3,
,Вес без упаковки,14 кг,
,Вес в упаковке,16 кг,
,Parameter Level,3,
,Наличие SATA,да,
,PCI-Express 3.0 4x,1,
,PCI-Express 3.0  8x,1,
,PCI-Express 3.0 16x,1,
,Наличие USB 2.0,2,
,Наличие USB 3.0,2,
,COM,1,
,RJ45,2,
,MicroATX,да,
,Ширина упаковки,56.50 см,
,Глубина упаковки,71.50 см,
,Высота упаковки,29 см,
,Вес упаковки,15.98 кг,
Сервер RH2288/25-2 V3 460WR 2X2620V4/32GB/0/2GE HUAWEI HU,,,
,Полное описание,"Huawei Fusion Server RH2288 v4 25HD (2*E5-2620 V4 CPU,2*16GB Mem,2*GE,2*460W PSU,No DVD,Static Rail Kit) 02311PHL",
,Тип корпуса,2U rack,
,Чипсет,Intel C610,
,Socket,LGA2011-3,
,Тип процессора,E5-2620V4,
,Installed CPUs,2,
,Maximum number of CPUs,2,
,Память,32 Гб,
,Memory configuration,2 x 16GB,
,Тип оперативной памяти,DDR4,
,Версия,Redundant-Power-Capable,
,Мощность,460 Вт,
,Installed PSUs,2,
,Maximum number of PSUs,2,
,Количество в упаковке,1,
,Объем,0.16 м3,
,Вес без упаковки,32 кг,
,Вес в упаковке,36 кг,
,Parameter Level,3,
,"2.5"" SAS/SATA Hot-swap",25,
,EATX,да,
,Ширина упаковки,64 см,
,Глубина упаковки,94 см,
,Высота упаковки,27 см,
,Вес упаковки,36 кг,
Сервер E5-2630V4 LWT1208GXXXXX31 INTEL IN,,,
,System product code,R1208WTTGSR,
,Тип корпуса,1U rack,
,Socket,LGA2011-3,
,Тип процессора,E5-2630V4,
,Частота работы шины,2200 МГц,
,Installed CPUs,2,
,Maximum number of CPUs,2,
,Тип оперативной памяти,DDR4,
,Количество слотов памяти,24,
,PSU product code,FXX750PCRPS,
,Мощность,750 Вт,
,Installed PSUs,2,
,Аксессуары в комплекте,Remote Management Module AXXRMM4LITE,
,Количество в упаковке,1,
,Объем,0.14 м3,
,Вес без упаковки,23 кг,
,Вес в упаковке,27 кг,
,Parameter Level,3,
,PCI-Express 3.0 4x,1,
,PCI-Express 3.0  8x,1,
,PCI-Express 3.0 16x,2,
,COM,2,
,RJ45,2,
,Ширина упаковки,56 см,
,Глубина упаковки,99 см,
,Высота упаковки,27 см,
,Вес упаковки,27 кг,
Сервер 2XE5-2630V4 8X8GB LW22208YXXXXX23 INTEL IN,,,
,System product code,R2208WTTYSR,
,Тип корпуса,2U rack,
,Чипсет,Intel C612 Express,
,Socket,LGA2011-3,
,Тип процессора,E5-2630V4,
,Частота работы шины,2200 МГц,
,Installed CPUs,2,
,Maximum number of CPUs,2,
,Память,64 Гб,
,Memory configuration,"8x 8GB (1x8GB) RDIMM, DDR4, Dual Rank, 2133Mhz M393A1G43DB0-CPB",
,Тип оперативной памяти,DDR4,
,Memory features,RDIMM,
,Количество слотов памяти,24,
,RAID,1x Intel Integrated RAID Module RMS3CC080,
,PSU product code,AXX1100PCRPS,
,Мощность,1100 Вт,
,Installed PSUs,2,
,Аксессуары в комплекте,Remote Management Module AXXRMM4LITE, <br>Intel RAID Maintenance Free Backup AXXRMFBU5
,Количество в упаковке,1,
,Объем,0.14 м3,
,Вес без упаковки,20 кг,
,Вес в упаковке,24.10 кг,
,Parameter Level,3,
,PCI-Express 2.0 4x,1,
,PCI-Express 3.0 4x,1,
,PCI-Express 3.0  8x,7,
,COM,2,
,RJ45,2,
,Ширина упаковки,58 см,
,Глубина упаковки,99 см,
,Высота упаковки,26 см,
,Вес упаковки,24.10 кг,
Сервер 2XE5-2660V3 4X16GB LWT1208GXXXX227 INTEL IN,,,
,System product code,R1208WT2GSR,
,Тип корпуса,1U rack,
,Socket,LGA2011-3,
,Тип процессора,E5-2660V3,
,Частота работы шины,2600 МГц,
,Installed CPUs,2,
,Maximum number of CPUs,2,
,Память,64 Гб,
,Memory configuration,4x 16GB RDIMM DDR4 Dual Rank 2133Mhz,
,Тип оперативной памяти,DDR4,
,Memory features,RDIMM,
,Количество слотов памяти,24,
,PSU product code,FXX750PCRPS,
,Мощность,750 Вт,
,Installed PSUs,2,
,Аксессуары в комплекте,Remote Management Module AXXRMM4LITE,
,Количество в упаковке,1,
,Объем,0.15 м3,
,Вес без упаковки,20 кг,
,Вес в упаковке,23.60 кг,
,Parameter Level,1,
,PCI-Express 3.0 4x,1,
,PCI-Express 3.0  8x,1,
,PCI-Express 3.0 16x,2,
Сервер 2XE5-2620V4 LWT1208GXXXX420 INTEL IN,,,
,System product code,R1208WT2GSR,
,Тип корпуса,1U rack,
,Socket,LGA2011-3,
,Тип процессора,E5-2620V4,
,Частота работы шины,2100 МГц,
,Installed CPUs,2,
,Maximum number of CPUs,2,
,Тип оперативной памяти,DDR4,
,Количество слотов памяти,24,
,RAID,Intel Integrated RAID Module RMS3CC080,
,PSU product code,FXX750PCRPS,
,Мощность,750 Вт,
,Installed PSUs,2,
,Аксессуары в комплекте,Remote Management Module AXXRMM4LITE2, Intel RAID Maintenance Free Backup AXXRMFBU5
,Количество в упаковке,1,
,Объем,0.12 м3,
,Вес без упаковки,20 кг,
,Вес в упаковке,23 кг,
,Parameter Level,3,
,PCI-Express 3.0 4x,1,
,PCI-Express 3.0  8x,1,
,PCI-Express 3.0 16x,2,
,COM,2,
,RJ45,2,
,Ширина упаковки,56 см,
,Глубина упаковки,100 см,
,Высота упаковки,23 см,
,Вес упаковки,23 кг,
Сервер 2XE5-2680V3 24X32GB SYS-2028U-TR4+ SUPERMICRO SM,,,
,System product code,SYS-2028U-TR4+,
,Тип корпуса,2U rack,
,Чипсет,Intel C612 Express,
,Socket,LGA2011-3,
,Тип процессора,E5-2680V3,
,Частота работы шины,2500 МГц,
,Installed CPUs,2,
,Maximum number of CPUs,2,
,Обьем накопителя SSD,480Гб,
,SSD configuration,"1 x Intel S3610 480GB, SATA 6Gb/s, HET MLC 2.5"" 7.0mm 20nm",
,Память,768 Гб,
,Memory configuration,24 x 32GB DDR4-2133 2R*4 ECC REG DIMM,
,Тип оперативной памяти,DDR4,
,Memory features,RDIMM,
,Мощность,1000 Вт,
,Аксессуары в комплекте,"1 x AOC-SAS2-9280-24I4E LSI00211 9280-24I4E SATA/SAS 6Gb/s 2108,
2 x AOC-STGN-I2S STD Dual-port 10G Ethernet with SFP+ W/ CDR,
1 x BTR-0018L-KIT 27"" CABLE ADAPTER KIT for LSI IBBU,
1 x BTR-0023L-LSI00264 LSI00264 IBBU08 BATTERY BKUP FOR SAS2108,
6 x CBL-SAST-0507-02 Internal Mini-SAS to Mini-SAS HD 80cm w/ SB, 30AWG,
1 x MC0037 ASSEMBLY FEE",
,Количество в упаковке,1,
,Объем,0.21 м3,
,Вес без упаковки,16.40 кг,
,Вес в упаковке,34 кг,
,Parameter Level,3,
,"2.5"" SATA Hot-swap",24,
,Наличие USB 3.0,да,
,Наличие SATA 3.0,да,
,PCI-Express 3.0  8x,7,
,PCI-Express 3.0 16x,1,
,Разъем 15pin D-sub,1,
,Наличие USB 3.0,3,
,RJ45,5,
,COM via Header,1,
,Ширина упаковки,66 см,
,Глубина упаковки,116 см,
,Высота упаковки,28 см,
,Вес упаковки,34 кг,
